{
  "publicPath": "/_nuxt/",
  "all": [
    "../server/index.spa.html",
    "../server/index.ssr.html",
    "33f3c96dcb665744a65d.js",
    "4576b0727e76906c8324.js",
    "986963c7b05ed42515cb.js",
    "LICENSES",
    "a72d9d35a37800c6ba5b.js",
    "b1c1a329aa5b93626958.js",
    "b2170f3924586ae2d65d.js",
    "b4e4e35c73b930e2c21f.js",
    "d1818b318b4d463b2f19.js",
    "fonts/143146f.woff2",
    "fonts/99ac330.woff",
    "fonts/d535a25.ttf",
    "img/63d3056.jpg",
    "img/a2c4a26.svg"
  ],
  "initial": [
    "b1c1a329aa5b93626958.js",
    "a72d9d35a37800c6ba5b.js",
    "33f3c96dcb665744a65d.js",
    "b2170f3924586ae2d65d.js"
  ],
  "async": [
    "4576b0727e76906c8324.js",
    "986963c7b05ed42515cb.js",
    "b4e4e35c73b930e2c21f.js",
    "d1818b318b4d463b2f19.js"
  ],
  "modules": {
    "24199314": [
      8
    ],
    "24881459": [
      6
    ],
    "29730445": [
      6
    ],
    "34556490": [
      6
    ],
    "36472783": [
      2,
      11,
      12,
      13,
      15
    ],
    "36785820": [
      8
    ],
    "93712080": [
      6
    ],
    "94270026": [
      6
    ],
    "96492974": [
      8
    ],
    "42dc4138": [
      6
    ],
    "3bc76840": [
      8
    ],
    "a8a8fada": [
      2,
      11,
      12,
      13,
      15
    ],
    "3f5b8499": [
      6
    ],
    "a9c36622": [
      6
    ],
    "b970de9a": [
      6
    ],
    "2e50d1ce": [
      6
    ],
    "278409a3": [
      6
    ],
    "8525d1b2": [
      8
    ],
    "2b5d8b47": [
      6
    ],
    "b55589fc": [
      6
    ],
    "19a9d2b4": [
      6
    ],
    "a0d273c2": [
      6
    ],
    "43f37f84": [
      6
    ],
    "635b4201": [
      6
    ],
    "0edc3fd6": [
      6
    ],
    "5c1258ba": [
      6
    ],
    "f1e469f0": [
      6
    ],
    "a59fce8a": [
      6
    ],
    "fb7246ec": [
      6
    ],
    "857f97c2": [
      8
    ],
    "25044d14": [
      8
    ],
    "01602fe6": [
      8
    ],
    "94eee620": [
      8
    ],
    "9c563456": [
      8
    ],
    "78f241e0": [
      8
    ],
    "1ce535b0": [
      8
    ],
    "cf70040a": [
      8
    ],
    "2d3393aa": [
      8
    ],
    "373c4e2d": [
      8
    ],
    "16ee314a": [
      8
    ],
    "281fe3b8": [
      8
    ],
    "56694d3b": [
      8
    ],
    "9cfc3736": [
      8
    ],
    "fdd881d4": [
      8
    ],
    "6de5f452": [
      8
    ],
    "7ba04c4e": [
      8
    ],
    "7158e0ca": [
      8
    ],
    "0d589422": [
      8
    ],
    "59cd57d8": [
      8
    ],
    "0c58376b": [
      8
    ],
    "de145212": [
      6
    ],
    "e31abb18": [
      6
    ],
    "e62e5390": [
      6
    ],
    "2535e83e": [
      6
    ],
    "f1538740": [
      6
    ],
    "03d3bc64": [
      8
    ],
    "492839f8": [
      6
    ],
    "1391f28d": [
      6
    ],
    "87978c22": [
      6
    ],
    "4dbd05d4": [
      6
    ],
    "1d6d0d5e": [
      6
    ],
    "62ae82e0": [
      6
    ],
    "da2bd7c8": [
      2,
      11,
      12,
      13,
      15
    ],
    "63fb176e": [
      6
    ],
    "7f4143f0": [
      2,
      11,
      12,
      13,
      15
    ],
    "6622e6be": [
      6
    ],
    "2831f401": [
      6
    ],
    "3becc44a": [
      6
    ],
    "5292c406": [
      6
    ],
    "472968a2": [
      6
    ],
    "3bced2c8": [
      6
    ],
    "1dbbb191": [
      6
    ],
    "e8c0f71a": [
      6
    ],
    "0feb8fe7": [
      6
    ],
    "5bc750a3": [
      6
    ],
    "58934eeb": [
      6
    ],
    "2068e3f0": [
      6
    ],
    "5c5b199c": [
      6
    ],
    "4fc8b0e4": [
      6
    ],
    "29781a88": [
      6
    ],
    "2de318b1": [
      6
    ],
    "5e420972": [
      6
    ],
    "74ee78f3": [
      6
    ],
    "63cba265": [
      6
    ],
    "161a32bf": [
      6
    ],
    "121d2e10": [
      6
    ],
    "1617ece4": [
      6
    ],
    "0dd0be9c": [
      6
    ],
    "2f0f5e2e": [
      6
    ],
    "09ee24f1": [
      6
    ],
    "357e409a": [
      6
    ],
    "60d112a9": [
      2,
      11,
      12,
      13,
      15
    ],
    "6ce01b24": [
      2,
      11,
      12,
      13,
      15
    ],
    "50224b12": [
      2,
      11,
      12,
      13,
      15
    ],
    "9148d0da": [
      8
    ],
    "805c23c2": [
      8
    ],
    "d5595d30": [
      8
    ],
    "33eddc78": [
      2,
      11,
      12,
      13,
      15
    ],
    "3ff242d8": [
      2,
      11,
      12,
      13,
      15
    ],
    "520afda3": [
      8
    ],
    "138fce6f": [
      6
    ],
    "7e0e5bc1": [
      6
    ],
    "a6d33142": [
      6
    ],
    "405c7c3f": [
      6
    ],
    "1613612e": [
      6
    ],
    "6e1dcc56": [
      6
    ],
    "63edc5ba": [
      6
    ],
    "0e094e54": [
      6
    ],
    "65c07dcc": [
      6
    ],
    "5d84118f": [
      6
    ],
    "46b69024": [
      6
    ],
    "67ca97cd": [
      6
    ],
    "4f936dc9": [
      2,
      11,
      12,
      13,
      15
    ],
    "1d255a97": [
      8
    ],
    "0fead312": [
      8
    ],
    "108b472b": [
      8
    ],
    "2a7e6f7c": [
      2,
      11,
      12,
      13,
      15
    ],
    "2f122289": [
      6
    ],
    "b10c1ff0": [
      6
    ],
    "6638b85f": [
      6
    ],
    "7e25b44e": [
      6
    ],
    "61bb00e4": [
      6
    ],
    "5b7e72a0": [
      6
    ],
    "2d7b7a17": [
      6
    ],
    "bc8c192a": [
      6
    ],
    "4c479126": [
      6
    ],
    "2e2119da": [
      6
    ],
    "562deb63": [
      6
    ],
    "c7919a78": [
      6
    ],
    "e87643e0": [
      6
    ],
    "0726815e": [
      6
    ],
    "b8de8102": [
      6
    ],
    "ec108bc4": [
      6
    ],
    "1b4c28b2": [
      6
    ],
    "d1212b84": [
      6
    ],
    "4bd68895": [
      6
    ],
    "1160cd10": [
      6
    ],
    "580624e4": [
      2,
      11,
      12,
      13,
      15
    ],
    "4a240c4f": [
      6
    ],
    "15c8cf6b": [
      6
    ],
    "67703d7f": [
      6
    ],
    "2ffc99b8": [
      6
    ],
    "cf6e0442": [
      6
    ],
    "4685eb8c": [
      6
    ],
    "d57cef68": [
      6
    ],
    "d6b1832e": [
      6
    ],
    "e7174f68": [
      2,
      11,
      12,
      13,
      15
    ],
    "1f9a3ac8": [
      6
    ],
    "31886bb1": [
      6
    ],
    "6d5c36a0": [
      2,
      11,
      12,
      13,
      15
    ],
    "601d6360": [
      2,
      11,
      12,
      13,
      15
    ],
    "911f648c": [
      8
    ],
    "ad0aed5c": [
      8
    ],
    "3ad85bf0": [
      6
    ],
    "176c5527": [
      6
    ],
    "3a3f7986": [
      6
    ],
    "62276a0a": [
      6
    ],
    "300608c4": [
      6
    ],
    "de03e25e": [
      6
    ],
    "483aa118": [
      6
    ],
    "004761e0": [
      6
    ],
    "1bf7a7b3": [
      6
    ],
    "3e0fda05": [
      6
    ],
    "44cbd857": [
      6
    ],
    "08b7923c": [
      6
    ],
    "19fc3720": [
      6
    ],
    "3a4a1c7a": [
      6
    ],
    "e8a9e00a": [
      6
    ],
    "534638f6": [
      6
    ],
    "3a59aae9": [
      6
    ],
    "273ad2df": [
      6
    ],
    "249723be": [
      6
    ],
    "1b12cd22": [
      6
    ],
    "71f11197": [
      6
    ],
    "7d9e7253": [
      6
    ],
    "212e5bb4": [
      6
    ],
    "f6accbc0": [
      6
    ],
    "3853f7dd": [
      6
    ],
    "a1ee290a": [
      6
    ],
    "52a596ca": [
      6
    ],
    "094151bb": [
      6
    ],
    "0723fe52": [
      6
    ],
    "03fbface": [
      6
    ],
    "226b5a03": [
      6
    ],
    "cdbf64be": [
      6
    ],
    "6a8543b1": [
      6
    ],
    "5726849e": [
      6
    ],
    "171b957b": [
      6
    ],
    "2584be7b": [
      6
    ],
    "af1c2464": [
      6
    ],
    "ac32b3a8": [
      6
    ],
    "398030b8": [
      6
    ],
    "59b93af4": [
      6
    ],
    "0a01604b": [
      8
    ],
    "1c19b682": [
      8
    ],
    "002868d7": [
      8
    ],
    "9a8a3f6a": [
      8
    ],
    "ca055478": [
      8
    ],
    "35d80092": [
      2,
      11,
      12,
      13,
      15
    ],
    "5982fd47": [
      2,
      11,
      12,
      13,
      15
    ],
    "6e40214d": [
      2,
      11,
      12,
      13,
      15
    ],
    "5bef6493": [
      2,
      11,
      12,
      13,
      15
    ],
    "6211f256": [
      2,
      11,
      12,
      13,
      15
    ],
    "50d21194": [
      8
    ],
    "2d084e06": [
      8
    ],
    "19c331d1": [
      2,
      11,
      12,
      13,
      15
    ],
    "0838ce84": [
      2,
      11,
      12,
      13,
      15
    ],
    "2139ada6": [
      2,
      11,
      12,
      13,
      15
    ],
    "d67d9d5a": [
      2,
      11,
      12,
      13,
      15
    ],
    "cdb07ffc": [
      2,
      11,
      12,
      13,
      15
    ],
    "3c5b1337": [
      2,
      11,
      12,
      13,
      15
    ],
    "80f9a7d2": [
      8
    ],
    "3ced853c": [
      6
    ],
    "3d788960": [
      6
    ],
    "5ab57e00": [
      6
    ],
    "faa4c05e": [
      6
    ],
    "60f7d920": [
      6
    ],
    "0d5fe446": [
      6
    ],
    "56056d86": [
      6
    ],
    "d06d9924": [
      6
    ],
    "75c8c544": [
      6
    ],
    "660e3a34": [
      6
    ],
    "8c4cd202": [
      6
    ],
    "0db5fe79": [
      6
    ],
    "4a866c91": [
      6
    ],
    "f525359a": [
      6
    ],
    "2763684c": [
      6
    ],
    "4dc2dbce": [
      6
    ],
    "9c3ccf82": [
      2,
      11,
      12,
      13,
      15
    ],
    "17b4f52b": [
      2,
      11,
      12,
      13,
      15
    ],
    "0e37186d": [
      10,
      14
    ],
    "210d7147": [
      3
    ],
    "8ef9b658": [
      3
    ],
    "1ac2118f": [
      3
    ],
    "6f70f544": [
      3
    ],
    "4173215f": [
      3
    ],
    "7ebdf328": [
      3
    ],
    "4f7f65e4": [
      3
    ],
    "cc890378": [
      3
    ],
    "11b1f646": [
      3
    ],
    "c73897f0": [
      3
    ],
    "5be6778c": [
      3
    ],
    "3a354dd2": [
      3
    ],
    "1e7d9dc8": [
      3
    ],
    "6e86a9b2": [
      3
    ],
    "0334bb7c": [
      3
    ],
    "93ccbb90": [
      3
    ],
    "9a1f2978": [
      3
    ],
    "34a671a2": [
      3
    ],
    "5d537f52": [
      3
    ],
    "e8e2fcfc": [
      3
    ],
    "200d6d5b": [
      4
    ],
    "ed86a838": [
      4
    ],
    "2c64ee0e": [
      4
    ],
    "6ecc49cc": [
      4
    ],
    "2aeb71ae": [
      4
    ],
    "74f75e76": [
      9
    ],
    "62bcc50e": [
      9
    ],
    "2fef5ee2": [
      9
    ],
    "022f6c78": [
      9
    ],
    "1c3edabf": [
      9
    ],
    "6c269124": [
      10,
      14
    ],
    "598397e0": [
      10,
      14
    ],
    "9d2980cc": [
      10,
      14
    ]
  },
  "assetsMapping": {
    "33f3c96dcb665744a65d.js": "7ea1d828",
    "4576b0727e76906c8324.js": "2a130dde",
    "986963c7b05ed42515cb.js": "95645848",
    "a72d9d35a37800c6ba5b.js": "0859c165",
    "b1c1a329aa5b93626958.js": "6fca0322",
    "b2170f3924586ae2d65d.js": "1a3ae26b",
    "b4e4e35c73b930e2c21f.js": "95dfe2f4",
    "d1818b318b4d463b2f19.js": "2d17dac1"
  }
}