{
  "entry": "server.js",
  "files": {
    "3257e98826763c363632.js": "3257e98826763c363632.js",
    "37f319b7657de9427811.js": "37f319b7657de9427811.js",
    "9147a10cdd9378c4c8e5.js": "9147a10cdd9378c4c8e5.js",
    "a183e06d98659a26216b.js": "a183e06d98659a26216b.js",
    "server.js": "server.js"
  },
  "maps": {}
}